5 Importing Data in R | Data Analysis for Economic Research
…
# Import CSV file
yc <- read_csv(file = "files/yieldcurve.csv", col_names = TRUE)

# Import CSV file using the read_delim() function
yc <- read_delim(file = "files/yieldcurve.csv", col_names = TRUE, delim = ",")

In the code snippets above, the read_csv() and read_delim() functions from the readr package are used to import a CSV file named “yieldcurve.csv”. The col_names = TRUE argument indicates that the first row of the CSV file contains column names. The delim = "," argument specifies that the columns are separated by commas, which is the standard delimiter for CSV (Comma Separated Values) files. Either one of the two functions can be used to read the CSV file and store the data in the variable yc for further analysis.

To inspect the first few rows of the data, print the yc object in the console. For an overview of the entire dataset, use the View() function, which provides an interface similar to viewing the CSV file in Microsoft Excel:

# Display the data
yc

## # A tibble: 8,382 × 14
##    Date      `1 Mo` `2 Mo` `3 Mo` `4 Mo` `6 Mo`
##    <chr>     <chr>  <chr>   <dbl> <chr>   <dbl>
##  1 01/02/19… N/A    N/A      7.83 N/A      7.89
##  2 01/03/19… N/A    N/A      7.89 N/A      7.94
##  3 01/04/19… N/A    N/A      7.84 N/A      7.9 
##  4 01/05/19… N/A    N/A      7.79 N/A      7.85
##  5 01/08/19… N/A    N/A      7.79 N/A      7.88
##  6 01/09/19… N/A    N/A      7.8  N/A      7.82
##  7 01/10/19… N/A    N/A      7.75 N/A      7.78
##  8 01/11/19… N/A    N/A      7.8  N/A      7.8 
##  9 01/12/19… N/A    N/A      7.74 N/A      7.81
## 10 01/16/19… N/A    N/A      7.89 N/A      7.99
## # ℹ 8,372 more rows
## # ℹ 8 more variables: `1 Yr` <dbl>,
## #   `2 Yr` <dbl>, `3 Yr` <dbl>, `5 Yr` <dbl>,
## #   `7 Yr` <dbl>, `10 Yr` <dbl>,
## #   `20 Yr` <chr>, `30 Yr` <chr>
…
## [1] "01/02/1990" "01/03/1990" "01/04/1990"
## [4] "01/05/1990" "01/08/1990" "01/09/1990"

# Convert to date format
yc$Date <- as.Date(yc$Date, format = "%m/%d/%Y")
head(yc$Date)

## [1] "1990-01-02" "1990-01-03" "1990-01-04"
## [4] "1990-01-05" "1990-01-08" "1990-01-09"

Hence, we have successfully imported the yield curve data and performed the necessary conversions to ensure that all columns are in their correct formats:

yc

## # A tibble: 8,382 × 14
##    Date       `1 Mo` `2 Mo` `3 Mo` `4 Mo`
##    <date>      <dbl>  <dbl>  <dbl>  <dbl>
##  1 1990-01-02     NA     NA   7.83     NA
##  2 1990-01-03     NA     NA   7.89     NA
##  3 1990-01-04     NA     NA   7.84     NA
##  4 1990-01-05     NA     NA   7.79     NA
##  5 1990-01-08     NA     NA   7.79     NA
##  6 1990-01-09     NA     NA   7.8      NA
##  7 1990-01-10     NA     NA   7.75     NA
##  8 1990-01-11     NA     NA   7.8      NA
##  9 1990-01-12     NA     NA   7.74     NA
## 10 1990-01-16     NA     NA   7.89     NA
## # ℹ 8,372 more rows
## # ℹ 9 more variables: `6 Mo` <dbl>,
## #   `1 Yr` <dbl>, `2 Yr` <dbl>, `3 Yr` <dbl>,
## #   `5 Yr` <dbl>, `7 Yr` <dbl>, `10 Yr` <dbl>,
## #   `20 Yr` <dbl>, `30 Yr` <dbl>
…
# Import TSV file using the read_delim() function
cs <- read_delim(file = "files/sca-tableall-on-2023-Jul-01.tsv", skip = 1, col_names = TRUE, delim = "\t")

In the provided code snippets, the file input specifies the file path or URL of the TSV file to be imported. The skip input is used to specify the number of rows to skip at the beginning of the file. In this case, skip = 1 indicates that the first line of the TSV file, which contains the title “All Tables”, should be skipped. The col_names input is set to TRUE to indicate that the second line of the TSV file (after skipping 1 row) contains the column names. Lastly, the delim input is set to "\t" to specify that the columns in the TSV file are separated by tabs, which is the standard delimiter for TSV (Tab Separated Values) files.

Note that if the file is neither CSV nor TSV, but rather has an exotic format where columns are separated by a different character that is neither a comma nor a tab, such as “/”, you can use the read_delim() function with the delim = "/" argument to specify the custom delimiter.

To inspect the first few rows of the data, print the cs object in the console. For an overview of the entire dataset, execute View(cs).

# Display the data
cs

## # A tibble: 545 × 360
##    Month  yyyy ics_all ics_inc31 ics_inc32
##    <dbl> <dbl>   <dbl>     <dbl>     <dbl>
##  1     1  1978    83.7        NA        NA
##  2     2  1978    84.3        NA        NA
##  3     3  1978    78.8        NA        NA
##  4     4  1978    81.6        NA        NA
##  5     5  1978    82.9        NA        NA
##  6     6  1978    80          NA        NA
##  7     7  1978    82.4        NA        NA
##  8     8  1978    78.4        NA        NA
##  9     9  1978    80.4        NA        NA
## 10    10  1978    79.3        NA        NA
## # ℹ 535 more rows
## # ℹ 355 more variables: ics_inc33 <dbl>,
## #   ics_a1834 <dbl>, ics_a3554 <dbl>,
## #   ics_a5597 <dbl>, ics_ne <dbl>,
## #   ics_nc <dbl>, ics_s <dbl>, ics_w <dbl>,
## #   icc_all <dbl>, ice_all <dbl>,
## #   pago_f_all <dbl>, pago_s_all <dbl>, …
…
##  [1] "Documentation" "gRGDP"        
##  [3] "gPGDP"         "UNEMP"        
##  [5] "gPCPI"         "gPCPIX"       
##  [7] "gPPCE"         "gPPCEX"       
##  [9] "gRPCE"         "gRBF"         
## [11] "gRRES"         "gRGOVF"       
## [13] "gRGOVSL"       "gNGDP"        
## [15] "HSTART"        "gIP"

# Import one of the Excel worksheets: "gRGDP"
gRGDP <- read_excel(path = "files/GBweb_Row_Format.xlsx", sheet = "gRGDP")
gRGDP

## # A tibble: 466 × 16
##     DATE gRGDPB4 gRGDPB3 gRGDPB2 gRGDPB1
##    <dbl>   <dbl>   <dbl>   <dbl>   <dbl>
##  1 1967.     5.9     1.9     4       4.5
##  2 1967.     1.9     4       4.5     0  
##  3 1967.     1.9     4       4.5    -0.3
##  4 1967.     1.9     4       4.5    -0.3
##  5 1967.     3.4     3.8    -0.2     2.4
##  6 1967.     3.4     3.8    -0.2     2.4
##  7 1967.     3.4     3.8    -0.2     2.4
##  8 1967.     3.4     3.8    -0.2     2.4
##  9 1967.     3.8    -0.2     2.4     4.2
## 10 1967.     3.8    -0.2     2.4     4.2
## # ℹ 456 more rows
## # ℹ 11 more variables: gRGDPF0 <dbl>,
## #   gRGDPF1 <dbl>, gRGDPF2 <dbl>,
## #   gRGDPF3 <dbl>, gRGDPF4 <dbl>,
## #   gRGDPF5 <dbl>, gRGDPF6 <dbl>,
## #   gRGDPF7 <dbl>, gRGDPF8 <dbl>,
## #   gRGDPF9 <dbl>, GBdate <dbl>
…
In the provided code snippet, the lapply() function is used to apply the read_excel() function to each element in the sheet_names list, returning a list that is the same length as the input. Consequently, the TB object becomes a list in which each element is a tibble corresponding to an individual Excel worksheet. For instance, to access the worksheet that contains unemployment forecasts, you would use the following code:

# Print one of the worksheets (unemployment forecasts):
TB[["UNEMP"]]

## # A tibble: 466 × 16
##     DATE UNEMPB4 UNEMPB3 UNEMPB2 UNEMPB1
##    <dbl>   <dbl>   <dbl>   <dbl>   <dbl>
##  1 1967.     3.8     3.8     3.8     3.7
##  2 1967.     3.8     3.8     3.7     3.7
##  3 1967.     3.8     3.8     3.7     3.7
##  4 1967.     3.8     3.8     3.7     3.7
##  5 1967.     3.8     3.7     3.7     3.8
##  6 1967.     3.8     3.7     3.7     3.8
##  7 1967.     3.8     3.7     3.7     3.8
##  8 1967.     3.8     3.7     3.7     3.8
##  9 1967.     3.7     3.7     3.8     3.9
## 10 1967.     3.7     3.7     3.8     3.9
## # ℹ 456 more rows
## # ℹ 11 more variables: UNEMPF0 <dbl>,
## #   UNEMPF1 <dbl>, UNEMPF2 <dbl>,
## #   UNEMPF3 <dbl>, UNEMPF4 <dbl>,
## #   UNEMPF5 <dbl>, UNEMPF6 <dbl>,
## #   UNEMPF7 <dbl>, UNEMPF8 <dbl>,
## #   UNEMPF9 <dbl>, GBdate <chr>
…
