20 Michigan Consumer Survey | Data Analysis for Economic Research
…
# Add new labels to existing labels
var_labels <- var_labels %>% 
    bind_rows(new_categories) %>% 
    mutate(variable = factor(variable, 
                             levels = c("CASEID", setdiff(unique(variable), "CASEID")), 
                             ordered = TRUE)) %>% 
    arrange(variable, value_cat)

# Print labels
var_labels

## # A tibble: 1,022 × 6
##    variable label_var           dcml question value_cat label_cat
##    <ord>    <chr>              <int> <chr>        <int> <chr>    
##  1 CASEID   Case Identificati…     0 <NA>            NA <NA>     
##  2 DATE     Date                  NA Date            NA <NA>     
##  3 R        Respondent ID          0 Respond…        NA <NA>     
##  4 YYYYMM   Survey Year & Mon…     0 Survey …        NA <NA>     
##  5 YYYYQ    Survey Year & Qua…     0 Survey …        NA <NA>     
##  6 YYYY     Survey Year            0 Survey …        NA <NA>     
##  7 ID       Interview ID           0 Intervi…        NA <NA>     
##  8 IDPREV   Previous ID in RDD     0 Previou…        NA <NA>     
##  9 DATEPR   Date of Previous …     0 Previou…        NA <NA>     
## 10 ICS      Index of Consumer…     2 The Ind…        NA <NA>     
## # ℹ 1,012 more rows
…
# Check how many times the same respondent participated in the survey
if(FALSE){
    CS_tidy %>% filter(is.na(R))
    CS_tidy %>% count(R) %>% group_by(n) %>% 
        summarize(freq = n(), sum = sum(n))
}

# Add variable labels
attr(CS_tidy, "labels") <- var_labels

# Print data
CS_tidy

## # A tibble: 312,130 × 113
##    DATE           R CASEID YYYYMM YYYYQ  YYYY    ID IDPREV DATEPR
##    <date>     <dbl>  <dbl>  <dbl> <dbl> <dbl> <dbl>  <dbl>  <dbl>
##  1 1978-01-01     1      1 197801 19781  1978     1     NA     NA
##  2 1978-01-01     2      2 197801 19781  1978     2     NA     NA
##  3 1978-01-01     3      3 197801 19781  1978     3     NA     NA
##  4 1978-01-01     4      4 197801 19781  1978     4     NA     NA
##  5 1978-01-01     5      5 197801 19781  1978     5     NA     NA
##  6 1978-01-01     6      6 197801 19781  1978     6     NA     NA
##  7 1978-01-01     7      7 197801 19781  1978     7     NA     NA
##  8 1978-01-01     8      8 197801 19781  1978     8     NA     NA
##  9 1978-01-01     9      9 197801 19781  1978     9     NA     NA
## 10 1978-01-01    10     10 197801 19781  1978    10     NA     NA
## # ℹ 312,120 more rows
## # ℹ 104 more variables: ICS <dbl>, ICC <dbl>, ICE <dbl>,
## #   PAGO <dbl>, PAGOR1 <dbl>, PAGOR2 <dbl>, PAGO5 <dbl>,
## #   PEXP <dbl>, PEXP5 <dbl>, INEXQ1 <dbl>, INEXQ2 <dbl>,
## #   INEX <dbl>, RINC <dbl>, BAGO <dbl>, BEXP <dbl>, BUS12 <dbl>,
## #   BUS5 <dbl>, NEWS1 <dbl>, NEWS2 <dbl>, UNEMP <dbl>,
## #   GOVT <dbl>, RATEX <dbl>, PX1Q1 <dbl>, PX1Q2 <dbl>, …
…
# Check if there is only one answer per CASEID, person, time period, and question:
if(FALSE){
    CS %>% count()
    CS %>% distinct(CASEID, variable) %>% count()
}

# Print data
CS

## # A tibble: 23,732,842 × 10
##    CASEID DATE           R    WT variable  dcml   value value_cat
##     <dbl> <date>     <dbl> <dbl> <ord>    <int>   <dbl>     <int>
##  1      1 1978-01-01     1     0 YYYYMM       0  1.98e5        NA
##  2      1 1978-01-01     1     0 YYYYQ        0  1.98e4        NA
##  3      1 1978-01-01     1     0 YYYY         0  1.98e3        NA
##  4      1 1978-01-01     1     0 ID           0  1   e0        NA
##  5      1 1978-01-01     1     0 ICS          2  7.67e1        NA
##  6      1 1978-01-01     1     0 ICC          2  1.16e2        NA
##  7      1 1978-01-01     1     0 ICE          2  5.13e1        NA
##  8      1 1978-01-01     1     0 PAGO         0 NA              3
##  9      1 1978-01-01     1     0 PAGOR1       0 NA             99
## 10      1 1978-01-01     1     0 PAGOR2       0 NA              0
## # ℹ 23,732,832 more rows
## # ℹ 2 more variables: label_cat <chr>, label_var <chr>
…
