Chapter 3 Getting Started | Module 1: Introduction to RStudio
…
In the code snippets above, the read_csv() and read_delim() functions from the readr package are used to import a CSV file named “yieldcurve.csv”. The col_names = TRUE argument indicates that the first row of the CSV file contains column names. The delim = "," argument specifies that the columns are separated by commas, which is the standard delimiter for CSV (Comma Separated Values) files. Either one of the two functions can be used to read the CSV file and store the data in the variable yc for further analysis.

To inspect the first few rows of the data, print the yc object in the console. For an overview of the entire dataset, use the View() function, which provides an interface similar to viewing the CSV file in Microsoft Excel:

# Display the data
yc

## # A tibble: 8,382 × 14
##    Date    `1 Mo` `2 Mo` `3 Mo` `4 Mo` `6 Mo` `1 Yr` `2 Yr` `3 Yr` `5 Yr` `7 Yr`
##    <chr>   <chr>  <chr>   <dbl> <chr>   <dbl>  <dbl>  <dbl>  <dbl>  <dbl>  <dbl>
##  1 01/02/… N/A    N/A      7.83 N/A      7.89   7.81   7.87   7.9    7.87   7.98
##  2 01/03/… N/A    N/A      7.89 N/A      7.94   7.85   7.94   7.96   7.92   8.04
##  3 01/04/… N/A    N/A      7.84 N/A      7.9    7.82   7.92   7.93   7.91   8.02
##  4 01/05/… N/A    N/A      7.79 N/A      7.85   7.79   7.9    7.94   7.92   8.03
##  5 01/08/… N/A    N/A      7.79 N/A      7.88   7.81   7.9    7.95   7.92   8.05
##  6 01/09/… N/A    N/A      7.8  N/A      7.82   7.78   7.91   7.94   7.92   8.05
##  7 01/10/… N/A    N/A      7.75 N/A      7.78   7.77   7.91   7.95   7.92   8   
##  8 01/11/… N/A    N/A      7.8  N/A      7.8    7.77   7.91   7.95   7.94   8.01
##  9 01/12/… N/A    N/A      7.74 N/A      7.81   7.76   7.93   7.98   7.99   8.07
## 10 01/16/… N/A    N/A      7.89 N/A      7.99   7.92   8.1    8.13   8.11   8.18
## # ℹ 8,372 more rows
## # ℹ 3 more variables: `10 Yr` <dbl>, `20 Yr` <chr>, `30 Yr` <chr>
…
## [1] "01/02/1990" "01/03/1990" "01/04/1990" "01/05/1990" "01/08/1990"
## [6] "01/09/1990"

# Convert to date format
yc$Date <- as.Date(yc$Date, format = "%m/%d/%Y")
head(yc$Date)

## [1] "1990-01-02" "1990-01-03" "1990-01-04" "1990-01-05" "1990-01-08"
## [6] "1990-01-09"

Hence, we have successfully imported the yield curve data and performed the necessary conversions to ensure that all columns are in their correct formats:

yc

## # A tibble: 8,382 × 14
##    Date       `1 Mo` `2 Mo` `3 Mo` `4 Mo` `6 Mo` `1 Yr` `2 Yr` `3 Yr` `5 Yr`
##    <date>      <dbl>  <dbl>  <dbl>  <dbl>  <dbl>  <dbl>  <dbl>  <dbl>  <dbl>
##  1 1990-01-02     NA     NA   7.83     NA   7.89   7.81   7.87   7.9    7.87
##  2 1990-01-03     NA     NA   7.89     NA   7.94   7.85   7.94   7.96   7.92
##  3 1990-01-04     NA     NA   7.84     NA   7.9    7.82   7.92   7.93   7.91
##  4 1990-01-05     NA     NA   7.79     NA   7.85   7.79   7.9    7.94   7.92
##  5 1990-01-08     NA     NA   7.79     NA   7.88   7.81   7.9    7.95   7.92
##  6 1990-01-09     NA     NA   7.8      NA   7.82   7.78   7.91   7.94   7.92
##  7 1990-01-10     NA     NA   7.75     NA   7.78   7.77   7.91   7.95   7.92
##  8 1990-01-11     NA     NA   7.8      NA   7.8    7.77   7.91   7.95   7.94
##  9 1990-01-12     NA     NA   7.74     NA   7.81   7.76   7.93   7.98   7.99
## 10 1990-01-16     NA     NA   7.89     NA   7.99   7.92   8.1    8.13   8.11
## # ℹ 8,372 more rows
## # ℹ 4 more variables: `7 Yr` <dbl>, `10 Yr` <dbl>, `20 Yr` <dbl>, `30 Yr` <dbl>
…
In the provided code snippets, the file input specifies the file path or URL of the TSV file to be imported. The skip input is used to specify the number of rows to skip at the beginning of the file. In this case, skip = 1 indicates that the first line of the TSV file, which contains the title “All Tables”, should be skipped. The col_names input is set to TRUE to indicate that the second line of the TSV file (after skipping 1 row) contains the column names. Lastly, the delim input is set to "\t" to specify that the columns in the TSV file are separated by tabs, which is the standard delimiter for TSV (Tab Separated Values) files.

Note that if the file is neither CSV nor TSV, but rather has an exotic format where columns are separated by a different character that is neither a comma nor a tab, such as “/”, you can use the read_delim() function with the delim = "/" argument to specify the custom delimiter.

To inspect the first few rows of the data, print the cs object in the console. For an overview of the entire dataset, execute View(cs).

# Display the data
cs

## # A tibble: 545 × 360
##    Month  yyyy ics_all ics_inc31 ics_inc32 ics_inc33 ics_a1834 ics_a3554
##    <dbl> <dbl>   <dbl>     <dbl>     <dbl>     <dbl>     <dbl>     <dbl>
##  1     1  1978    83.7        NA        NA        NA      93.7      86.7
##  2     2  1978    84.3        NA        NA        NA      99.7      82.3
##  3     3  1978    78.8        NA        NA        NA      91.7      76.8
##  4     4  1978    81.6        NA        NA        NA      91.8      79.7
##  5     5  1978    82.9        NA        NA        NA      95.1      78.9
##  6     6  1978    80          NA        NA        NA      91.7      75.7
##  7     7  1978    82.4        NA        NA        NA      92.2      78.4
##  8     8  1978    78.4        NA        NA        NA      87.8      77.2
##  9     9  1978    80.4        NA        NA        NA      86.6      83.9
## 10    10  1978    79.3        NA        NA        NA      90.6      76.7
## # ℹ 535 more rows
## # ℹ 352 more variables: ics_a5597 <dbl>, ics_ne <dbl>, ics_nc <dbl>,
## #   ics_s <dbl>, ics_w <dbl>, icc_all <dbl>, ice_all <dbl>, pago_f_all <dbl>,
## #   pago_s_all <dbl>, pago_u_all <dbl>, pago_dk_all <dbl>, pago_r_all <dbl>,
## #   pagorn_hy_all <dbl>, pagorn_ha_all <dbl>, pagorn_ld_all <dbl>,
## #   pagorn_ly_all <dbl>, pagorn_hp_all <dbl>, pagorn_la_all <dbl>,
## #   pagorn_hd_all <dbl>, pagorn_ny_all <dbl>, pagorn_nad_all <dbl>, …
…
